[
    {
        "title": "Quiz 1",
        "description": "some desc",
        "level": 1,
        "icon": "q1.png",
        "questions": [
            {
                "title": "question 1",
                "options": [
                    {
                        "text": "op1"
                    },
                    {
                        "text": "op2"
                    },
                    {
                        "text": "op3"
                    }
                ],
                "truth": 0
            }
        ]
    },
    {
        "title": "Quiz 2",
        "description": "some desc 222",
        "level": 2,
        "icon": "q2.png",
        "questions": [
            {
                "title": "question 1",
                "options": [
                    {
                        "text": "op1"
                    },
                    {
                        "text": "op2"
                    },
                    {
                        "text": "op3"
                    }
                ],
                "truth": 0
            }
        ]
    },
    {
        "title": "Quiz 3",
        "description": "some desc 222",
        "level": 2,
        "icon": "q3.webp",
        "questions": [
            {
                "title": "question 1",
                "options": [
                    {
                        "text": "op1"
                    },
                    {
                        "text": "op2"
                    },
                    {
                        "text": "op3"
                    }
                ],
                "truth": 0
            }
        ]
    }
]
